%YAML 1.1
%TAG !u! tag:unity3d.com,2011:
--- !u!114 &11400000
MonoBehaviour:
  m_ObjectHideFlags: 0
  m_CorrespondingSourceObject: {fileID: 0}
  m_PrefabInstance: {fileID: 0}
  m_PrefabAsset: {fileID: 0}
  m_GameObject: {fileID: 0}
  m_Enabled: 1
  m_EditorHideFlags: 0
  m_Script: {fileID: 11500000, guid: 0faa6510db6bc4d4ba7411503c2b8372, type: 3}
  m_Name: 2
  m_EditorClassIdentifier: 
  dialogueConverstation: []
  talkerName: Robber
  text: Time to get out of here.
  characterImage: {fileID: 0}
  talkerBustPosition: {x: 0, y: 0}
  objectIdIndex: 0
  grayScaleNonTalker: 1
