%YAML 1.1
%TAG !u! tag:unity3d.com,2011:
--- !u!114 &11400000
MonoBehaviour:
  m_ObjectHideFlags: 0
  m_CorrespondingSourceObject: {fileID: 0}
  m_PrefabInstance: {fileID: 0}
  m_PrefabAsset: {fileID: 0}
  m_GameObject: {fileID: 0}
  m_Enabled: 1
  m_EditorHideFlags: 0
  m_Script: {fileID: 11500000, guid: 1a249c24df0b81b4fb79c9949fe1ba21, type: 3}
  m_Name: _1
  m_EditorClassIdentifier: 
  dialogueConverstation:
  - {fileID: 11400000, guid: 258536c17f0f2a54795128b0d406a0fe, type: 2}
  - {fileID: 11400000, guid: daffbbc89f192f64384457d7835b89bf, type: 2}
  - {fileID: 11400000, guid: dbbd1bbc38e692b448ae7aa56f4d7476, type: 2}
  - {fileID: 11400000, guid: ed45066834a713949a967d1abd113777, type: 2}
  - {fileID: 11400000, guid: a2d5ac7d7609b5b4ba845950f54193f9, type: 2}
  - {fileID: 11400000, guid: 08f8839b33a88c2428a3b02c201a3006, type: 2}
  - {fileID: 11400000, guid: 58e950d2b3e000b478d762819f5fd5c3, type: 2}
