%YAML 1.1
%TAG !u! tag:unity3d.com,2011:
--- !u!114 &11400000
MonoBehaviour:
  m_ObjectHideFlags: 0
  m_CorrespondingSourceObject: {fileID: 0}
  m_PrefabInstance: {fileID: 0}
  m_PrefabAsset: {fileID: 0}
  m_GameObject: {fileID: 0}
  m_Enabled: 1
  m_EditorHideFlags: 0
  m_Script: {fileID: 11500000, guid: 1a249c24df0b81b4fb79c9949fe1ba21, type: 3}
  m_Name: _1
  m_EditorClassIdentifier: 
  dialogueConverstation:
  - {fileID: 11400000, guid: 0854d6f5e87aef8448f00d36e140f11d, type: 2}
  - {fileID: 11400000, guid: a7a1dfcd111ed8d46a557bf749db1a84, type: 2}
